{
  "project_info": {
    "project_number": "732927522060",
    "firebase_url": "https://jarvis-proj-404.firebaseio.com",
    "project_id": "jarvis-proj-404",
    "storage_bucket": "jarvis-proj-404.appspot.com"
  },
  "client": [
    {
      "client_info": {
        "mobilesdk_app_id": "1:732927522060:android:80189fb59dc4edebb08529",
        "android_client_info": {
          "package_name": "com.example.jarvisclient"
        }
      },
      "oauth_client": [
        {
          "client_id": "732927522060-vascfvih4gg65hjs8hbde0mbfjbbt5rl.apps.googleusercontent.com",
          "client_type": 1,
          "android_info": {
            "package_name": "com.example.jarvisclient",
            "certificate_hash": "5b7ba8cef46fadb7dd538228c39f1118f1409741"
          }
        },
        {
          "client_id": "732927522060-rq9oi23bl764or6do0coapvcjv23f96c.apps.googleusercontent.com",
          "client_type": 3
        }
      ],
      "api_key": [
        {
          "current_key": "AIzaSyDlZyttUwcUdWsFv5GgUtrmTV7oyAiFCew"
        }
      ],
      "services": {
        "appinvite_service": {
          "other_platform_oauth_client": [
            {
              "client_id": "732927522060-rq9oi23bl764or6do0coapvcjv23f96c.apps.googleusercontent.com",
              "client_type": 3
            }
          ]
        }
      }
    }
  ],
  "configuration_version": "1"
}